Platformer/Binaries/Win64/Platformer.exe	2020-08-22T11:23:42.132Z
Engine/Extras/Redist/en-us/UE4PrereqSetup_x64.exe	2020-06-18T13:15:11.208Z
Engine/Binaries/ThirdParty/Oculus/OVRPlugin/OVRPlugin/Win64/OVRPlugin.dll	2020-06-18T13:08:58.133Z
Engine/Binaries/ThirdParty/DbgHelp/dbghelp.dll	2020-06-18T13:08:28.111Z
Engine/Binaries/ThirdParty/PhysX3/Win64/VS2015/PxFoundationPROFILE_x64.dll	2020-06-18T13:09:08.862Z
Engine/Binaries/ThirdParty/PhysX3/Win64/VS2015/PxPvdSDKPROFILE_x64.dll	2020-06-18T13:09:08.920Z
Engine/Binaries/ThirdParty/PhysX3/Win64/VS2015/PhysX3PROFILE_x64.dll	2020-06-18T13:09:08.533Z
Engine/Binaries/ThirdParty/PhysX3/Win64/VS2015/PhysX3CookingPROFILE_x64.dll	2020-06-18T13:09:07.931Z
Engine/Binaries/ThirdParty/PhysX3/Win64/VS2015/PhysX3CommonPROFILE_x64.dll	2020-06-18T13:09:07.709Z
Engine/Binaries/ThirdParty/PhysX3/Win64/VS2015/APEX_ClothingPROFILE_x64.dll	2020-06-18T13:09:05.004Z
Engine/Binaries/ThirdParty/PhysX3/Win64/VS2015/APEX_LegacyPROFILE_x64.dll	2020-06-18T13:09:06.258Z
Engine/Binaries/ThirdParty/PhysX3/Win64/VS2015/ApexFrameworkPROFILE_x64.dll	2020-06-18T13:09:06.407Z
Engine/Binaries/ThirdParty/PhysX3/Win64/VS2015/NvClothPROFILE_x64.dll	2020-06-18T13:09:07.528Z
Engine/Binaries/ThirdParty/Ogg/Win64/VS2015/libogg_64.dll	2020-06-18T13:08:58.410Z
Engine/Binaries/ThirdParty/Vorbis/Win64/VS2015/libvorbis_64.dll	2020-06-18T13:09:47.477Z
Engine/Binaries/ThirdParty/Vorbis/Win64/VS2015/libvorbisfile_64.dll	2020-06-18T13:09:47.489Z
Engine/Binaries/ThirdParty/NVIDIA/NVaftermath/Win64/GFSDK_Aftermath_Lib.x64.dll	2020-07-25T16:03:19.765Z
Engine/Binaries/ThirdParty/OpenVR/OpenVRv1_5_17/Win64/openvr_api.dll	2020-06-18T13:08:58.733Z
Engine/Binaries/ThirdParty/Windows/WinPixEventRuntime/x64/WinPixEventRuntime.dll	2020-06-18T13:09:47.977Z
Engine/Binaries/ThirdParty/Windows/XAudio2_9/x64/xaudio2_9redist.dll	2020-06-18T13:09:48.469Z
Platformer.exe	2020-08-22T13:56:56.300Z
